<?xml version="1.0" encoding="utf-8"?>
<COLLADA xmlns="http://www.collada.org/2005/11/COLLADASchema" version="1.4.1">
  <asset>
    <contributor>
      <author>magnus.ihrefors</author>
      <authoring_tool>OpenCOLLADA2011 x64</authoring_tool>
      <comments>
			ColladaMaya export options: 
			bakeTransforms=0;relativePaths=0;copyTextures=0;exportTriangles=1;exportCgfxFileReferences=1;
			isSampling=0;curveConstrainSampling=0;removeStaticCurves=1;exportPolygonMeshes=1;exportLights=1;
			exportCameras=1;exportJointsAndSkin=1;exportAnimations=1;exportInvisibleNodes=0;exportDefaultCameras=0;
			exportTexCoords=1;exportNormals=1;exportNormalsPerVertex=1;exportVertexColors=1;exportVertexColorsPerVertex=1;
			exportTexTangents=0;exportTangents=0;exportReferencedMaterials=0;exportMaterialsOnly=0;
			exportXRefs=1;dereferenceXRefs=1;exportCameraAsLookat=0;cameraXFov=0;cameraYFov=1;doublePrecision=0
		</comments>
      <source_data>file:///C:/Maya_2011_Projects/3dAssets/scenes/All_Art_344.mb</source_data>
    </contributor>
    <created>2014-04-24T10:37:52</created>
    <modified>2014-04-24T10:37:52</modified>
    <unit name="millimeter" meter="0.001"/>
    <up_axis>Y_UP</up_axis>
  </asset>
  <library_materials>
    <material id="phong449" name="phong449">
      <instance_effect url="#phong449-fx"/>
    </material>
  </library_materials>
  <library_effects>
    <effect id="phong449-fx">
      <profile_COMMON>
        <technique sid="common">
          <phong>
            <emission>
              <color>0 0 0 1</color>
            </emission>
            <ambient>
              <color>0 0 0 1</color>
            </ambient>
            <diffuse>
              <color>0.4 0.4 0.4 1</color>
            </diffuse>
            <specular>
              <color>0.5 0.5 0.5 1</color>
            </specular>
            <shininess>
              <float>20</float>
            </shininess>
            <reflective>
              <color>0 0 0 1</color>
            </reflective>
            <reflectivity>
              <float>0.5</float>
            </reflectivity>
            <transparent opaque="RGB_ZERO">
              <color>0.8757763 0.8757763 0.8757763 1</color>
            </transparent>
            <transparency>
              <float>1</float>
            </transparency>
          </phong>
        </technique>
      </profile_COMMON>
    </effect>
  </library_effects>
  <library_geometries>
    <geometry id="Lamp_18_LM_LOD0Shape" name="Lamp_18_LM_LOD0Shape">
      <mesh>
        <source id="Lamp_18_LM_LOD0Shape-positions" name="Lamp_18_LM_LOD0Shape-positions">
          <float_array id="Lamp_18_LM_LOD0Shape-positions-array" count="630">-2.770753 -0.6342688 0.1709072 -2.776327 -0.4666612 0.1481093 2.771349 -0.6341767 0.1696308 2.776456 -0.467464 0.1447007 2.776461 0.4701328 0.1452388 2.771349 0.6430671 0.1699795 -2.770734 0.643031 0.1714055 -2.776346 0.4667041 0.1512836 2.762656 0.6799531 0.203228 -2.75135 0.6814963 0.2265866 -2.761283 0.6799296 0.2032977 2.762651 -0.6693155 0.2034751 -2.751355 -0.670844 0.2269879 -2.761283 -0.6693298 0.2036136 2.762651 0.8112437 0.01892999 -2.751212 0.8137065 0.02459124 -2.761283 0.8112437 0.01892194 -2.771792 0.7595336 0.01012057 -2.778072 0.50201 0.009744614 -2.778058 -0.5043498 0.007054657 -2.771792 -0.7595333 0.009584129 -2.761283 -0.8112398 0.0188987 -2.751212 -0.8137035 0.02405077 2.762651 -0.8112398 0.01871541 2.772307 -0.7595316 0.008630306 2.778072 -0.505254 0.005905181 2.778077 0.5056259 0.005976409 2.772307 0.7595336 0.009293556 2.76268 -0.7874399 0.169297 -2.751265 -0.7888314 0.196591 -2.761312 -0.787518 0.1698463 -2.761292 0.7904023 0.1691562 -2.751265 0.7919204 0.1957694 2.762671 0.790475 0.1690666 -2.777691 -0.4961699 0.1083645 -2.771497 -0.7421726 0.1266162 2.772021 -0.7417244 0.1235987 2.777686 -0.4967731 0.1050787 2.777662 0.4968184 0.1068604 2.772021 0.7439238 0.125812 -2.777677 0.493761 0.1206858 -2.771482 0.7438058 0.129384 -2.766757 0.8017313 0.01408458 -2.766619 -0.7806733 0.1479121 -2.775574 0.6619036 0.009041578 2.767692 0.8017313 0.01402333 -2.775574 -0.661909 0.006954819 -2.766757 -0.8017328 0.01412526 2.771707 0.7191548 0.1471977 2.7772 0.4864684 0.1270373 -2.777171 -0.4846373 0.1292506 -2.775211 -0.6486681 0.1125391 -2.771153 -0.7131028 0.1479536 2.771711 -0.7127902 0.1459849 2.777233 -0.4853284 0.1258564 2.767558 0.7832783 0.1471986 2.767692 -0.8017328 0.01354277 2.767558 -0.7804158 0.1461503 -2.766232 -0.6646234 0.1872879 -2.766228 0.6749588 0.1871748 2.767205 0.6750104 0.1868823 2.767205 -0.6645709 0.1868282 -2.774282 0.5667418 0.1590057 -2.774296 -0.5615184 0.157197 2.762327 0.7947546 -0.03258407 -2.75104 0.7972509 -0.0296326 -2.760925 0.7947546 -0.03258623 -2.771211 0.7428825 -0.03809005 -2.77739 0.4904321 -0.03817551 -2.777376 -0.492776 -0.03858775 -2.771211 -0.7428855 -0.03824212 -2.760925 -0.7947522 -0.03277928 -2.75104 -0.7972488 -0.03131405 2.762327 -0.7947546 -0.03282756 2.771778 -0.7428855 -0.03849551 2.777429 -0.4936779 -0.03951296 2.777433 0.4940498 -0.039552 2.771778 0.7428825 -0.03830872 2.762651 -0.8110133 0.08421808 -2.751222 -0.8134621 0.1102985 -2.761278 -0.8110139 0.08511364 -2.771778 -0.7593915 0.0447315 -2.778058 -0.5042818 0.03017202 -2.778077 0.5019307 0.04500538 -2.771783 0.7593817 0.04736409 -2.761278 0.811027 0.08490026 -2.751222 0.8134812 0.1102811 2.762651 0.8110306 0.08493692 2.772307 0.7593834 0.04329681 2.778058 0.5055338 0.02611026 2.778072 -0.5051771 0.02542391 2.772307 -0.7593814 0.0400655 2.76268 -0.7534954 0.1858376 -2.751312 -0.754371 0.2113235 -2.761312 -0.7535484 0.1861387 -2.761292 0.7612914 0.1855801 -2.751312 0.762257 0.2106248 2.762666 0.7613397 0.1855068 -2.777176 0.483256 0.136406 -2.771139 0.7190701 0.1496203 -2.766619 0.7830781 0.1477939 -2.775183 0.6493363 0.1214983 -2.766442 0.7555169 0.1667787 -2.774773 0.6294134 0.1395293 2.767406 0.7556599 0.1663482 -2.774782 -0.6260732 0.1342377 -2.766457 -0.7482016 0.1668879 2.767401 -0.7480234 0.1658963 -2.766075 0.7774866 -0.03565148 -2.774644 0.6413397 -0.03909156 -2.774644 -0.6413406 -0.03964126 -2.766075 -0.7774857 -0.03568597 2.767062 -0.7774857 -0.03583923 2.767062 0.7774824 -0.03566802 2.767692 -0.8015409 0.06152853 -2.766757 -0.8015469 0.06437719 -2.775574 -0.6618005 0.03276482 -2.775574 0.6617889 0.04302919 -2.766757 0.801546 0.06410301 2.767692 0.8015525 0.06379396 -2.769375 0.7865143 0.01183376 -2.76916 -0.7672262 0.1367268 -2.776947 0.5961066 0.009226799 2.770109 0.7865143 0.01152098 -2.776947 -0.5961075 0.006452352 -2.769375 -0.7865173 0.01170591 -2.77657 -0.5852345 0.1089177 2.769895 0.7694846 0.1360011 2.770109 -0.7865173 0.01091421 2.769895 -0.7668686 0.1342902 -2.768579 -0.6542167 0.178913 -2.768579 0.6640059 0.1790354 2.769346 0.6640616 0.1783426 2.769351 -0.6541422 0.178127 -2.775502 0.5225757 0.1543674 -2.775497 -0.5190244 0.1515867 2.762651 0.8112437 -0.01402587 -2.751212 0.8137065 -0.01023769 -2.761283 0.8112437 -0.01403019 -2.771792 0.7595336 -0.02047956 -2.778072 0.50201 -0.02065979 -2.778058 -0.5043498 -0.02191111 -2.771797 -0.7595333 -0.02077237 -2.761283 -0.8112398 -0.01413703 -2.751212 -0.8137035 -0.01131848 2.762651 -0.8112398 -0.01423508 2.772307 -0.7595333 -0.02128378 2.778072 -0.505254 -0.02282754 2.778077 0.5056259 -0.02282605 2.772307 0.7595336 -0.02092302 -2.769151 0.7692772 0.1376303 -2.776546 0.5854785 0.1204936 -2.768888 0.7429582 0.1575947 -2.776089 0.5698356 0.1370732 2.769647 0.743103 0.1564676 -2.776098 -0.5678159 0.1302068 -2.768908 -0.7361621 0.1570521 2.769651 -0.7359099 0.1555957 -2.766757 0.8017331 -0.01752213 -2.76876 0.7657349 -0.0370159 -2.775569 0.6619036 -0.02136216 -2.776127 0.5797118 -0.0388594 -2.775569 -0.661909 -0.02248183 -2.776127 -0.5797139 -0.0395935 -2.766757 -0.8017299 -0.01752347 -2.76876 -0.7657349 -0.03706992 2.767692 -0.8017299 -0.0178358 2.769518 -0.7657349 -0.03727958 2.767692 0.8017331 -0.01755506 2.769518 0.7657349 -0.03709942 2.770104 -0.786345 0.05007714 -2.769375 -0.7863533 0.05394936 -2.776947 -0.5960163 0.03007263 -2.776942 0.5960053 0.04371464 -2.76938 0.7863486 0.0545527 2.770104 0.7863551 0.05300805 -2.769375 0.7865179 -0.01918674 -2.776947 0.5961066 -0.02120242 -2.776947 -0.5961075 -0.02269015 -2.769375 -0.7865173 -0.01926541 2.770109 -0.7865179 -0.0196901 2.770109 0.7865143 -0.01935437 -2.773013 -0.6996584 -0.03897749 -2.773786 -0.7186079 -0.02167091 -2.773786 -0.7186079 0.008202046 -2.773771 -0.7184827 0.03844127 -2.773442 -0.7032159 0.1192167 -2.773051 -0.6772164 0.140744 -2.772613 -0.6049556 0.1637004 -2.772613 0.6119481 0.1648878 -2.773042 0.6818604 0.1443161 -2.773428 0.7043588 0.1252389 -2.773767 0.7184717 0.0450854 -2.773786 0.7186052 0.009553432 -2.773786 0.7186052 -0.02094358 -2.773013 0.6996563 -0.03861666 2.776012 -0.5942082 -0.04005343 2.776775 -0.6110173 -0.02324678 2.776775 -0.6110173 0.005619675 2.776775 -0.6109148 0.02638116 2.776399 -0.5994284 0.1069351 2.775984 -0.581629 0.1285508 2.775397 -0.537453 0.14983 2.775388 0.541445 0.1503724 2.775974 0.5839157 0.1299208 2.776389 0.5997518 0.109092 2.776775 0.6109035 0.027989 2.776775 0.6110165 0.005943179 2.776775 0.6110179 -0.02307296 2.776012 0.5942068 -0.0399676</float_array>
          <technique_common>
            <accessor source="#Lamp_18_LM_LOD0Shape-positions-array" count="210" stride="3">
              <param name="X" type="float"/>
              <param name="Y" type="float"/>
              <param name="Z" type="float"/>
            </accessor>
          </technique_common>
        </source>
        <source id="Lamp_18_LM_LOD0Shape-normals" name="Lamp_18_LM_LOD0Shape-normals">
          <float_array id="Lamp_18_LM_LOD0Shape-normals-array" count="630">-0.979248 -0.01758407 0.2019016 -0.9929753 -0.004424535 0.118239 0.9864435 -0.0146181 0.1634489 0.9950896 -0.003864101 0.09890318 0.9951028 0.003689535 0.09877668 0.9864709 0.01438507 0.1633034 -0.978392 0.01818522 0.2059568 -0.9925293 0.003585964 0.1219538 0.6141902 0.08171409 0.784916 -0.5534076 0.08507617 0.8285542 -0.943103 0.03467555 0.3306881 0.6152781 -0.07802393 0.7844394 -0.5535686 -0.08104189 0.8288511 -0.9434513 -0.03277961 0.3298863 0.5160907 0.856533 0.001308819 -0.1204037 0.992724 0.001438327 -0.6015968 0.7987989 0.001249391 -0.9976272 0.06884662 2.50309e-4 -0.9999822 0.0059845 0 -0.9999817 -0.006062389 0 -0.9976258 -0.06886533 3.31856e-4 -0.601484 -0.7988839 0.001288669 -0.1203919 -0.9927253 0.001523588 0.5160831 -0.8565373 0.001395881 0.9984501 -0.05565438 1.46986e-4 0.9999813 -0.00613237 1.3391e-4 0.999981 0.006151747 2.48273e-4 0.9984499 0.05565788 1.34473e-4 0.6386886 -0.5990621 0.4829093 -0.4843857 -0.6942927 0.5322857 -0.9079858 -0.3534854 0.2249664 -0.9004797 0.3765273 0.2176316 -0.4705155 0.7238817 0.5045893 0.6296452 0.6265511 0.4593263 -0.9998221 -0.006279987 0.01778364 -0.9972106 -0.05619292 0.049127 0.9982005 -0.04552304 0.03903224 0.99986 -0.006097891 0.0155794 0.9998605 0.005969338 0.01560627 0.9982649 0.04595921 0.03681037 -0.9997855 0.006056295 0.01980426 -0.9970847 0.05883282 0.0485888 -0.9407316 0.3391515 6.0452e-4 -0.9765797 -0.1768562 0.1225311 -0.9996561 0.02622572 0 0.9485914 0.3165029 5.65424e-4 -0.9996562 -0.02622045 0 -0.9407012 -0.3392355 6.11175e-4 0.9957751 0.03417966 0.08522721 0.9993412 0.00571628 0.03584233 -0.9991233 -0.006294769 0.04138829 -0.9993479 -0.02455157 0.02647636 -0.993127 -0.04119221 0.1095535 0.9956269 -0.03395222 0.08703004 0.9993374 -0.005886102 0.03591833 0.9794306 0.1716627 0.1060549 0.9485905 -0.3165055 6.08889e-4 0.9811997 -0.1596835 0.1083902 -0.9663858 -0.02608462 0.2557697 -0.9659352 0.02751468 0.2573172 0.9726967 0.02473805 0.2307579 0.9731435 -0.02386758 0.2289588 -0.9854234 0.01037166 0.1698033 -0.9864523 -0.01066066 0.1637015 0.4383251 0.6451031 -0.62587 0.01686198 0.7551782 -0.6553026 -0.4052666 0.655228 -0.6375228 -0.9907631 0.07446888 -0.1133256 -0.9989083 0.006338109 -0.04628194 -0.9988504 -0.006308799 -0.04752027 -0.9904755 -0.07530458 -0.1152706 -0.4472175 -0.6446378 -0.6200311 -0.02479044 -0.7603729 -0.6490136 0.4380903 -0.6481497 -0.6228794 0.9928678 -0.06298576 -0.1012236 0.9989352 -0.006447362 -0.04568443 0.998936 0.006525809 -0.0456555 0.9929652 0.06294593 -0.1002893 0.5494654 -0.8283989 0.1088264 -0.2369497 -0.9632557 0.1264644 -0.7235718 -0.6854103 0.08158789 -0.9977225 -0.06686176 0.008902061 -0.9999774 -0.006132115 0.002792093 -0.9999776 0.006041731 0.002915723 -0.9976934 0.06736326 0.008380405 -0.7144727 0.6956524 0.07481024 -0.2282111 0.9669758 0.1134794 0.5445477 0.8330225 0.09767967 0.9985178 0.05400326 0.006782612 0.9999768 0.006104353 0.003047514 0.9999769 -0.006140871 0.002925461 0.9985157 -0.05396478 0.007356063 0.6267537 -0.2444382 0.739885 -0.5559259 -0.2552733 0.7910638 -0.94859 -0.1006144 0.3000898 -0.9472663 0.1135136 0.2996686 -0.5548455 0.2835028 0.782159 0.6245493 0.2704187 0.7326746 -0.9989206 0.005881007 0.04607788 -0.9925489 0.04403999 0.1136094 -0.9752231 0.187349 0.1176447 -0.9992488 0.02523652 0.02940669 -0.9759283 0.08188233 0.2021364 -0.9971949 0.02267661 0.07133129 0.9806789 0.07381699 0.1811626 -0.9978114 -0.02203088 0.06234608 -0.976516 -0.07369896 0.2024475 0.9814541 -0.06717329 0.1795423 -0.8560105 0.3237869 -0.4029989 -0.9966945 0.026185 -0.07690544 -0.9964546 -0.02656075 -0.07983002 -0.8578523 -0.3221243 -0.4004066 0.8706437 -0.3071928 -0.3842034 0.8716781 0.3067678 -0.3821922 0.9611661 -0.2742009 0.03119939 -0.953815 -0.2984015 0.03454443 -0.9996501 -0.02606446 0.004512122 -0.9996451 0.02623269 0.004638577 -0.9527766 0.3020295 0.03154303 0.9594522 0.2803798 0.02896109 -0.9915884 0.1294303 2.56153e-4 -0.9930331 -0.0921177 0.07348401 -0.9998651 0.01642601 0 0.9928864 0.1190653 2.58148e-4 -0.9998639 -0.01649758 0 -0.9915919 -0.1294044 3.11571e-4 -0.9996411 -0.01626196 0.02129042 0.994368 0.08652727 0.06120054 0.9928876 -0.1190554 2.86101e-4 0.9943902 -0.08368163 0.0646948 -0.9742599 -0.02173267 0.2243777 -0.9737253 0.02266103 0.2265957 0.9801821 0.01988671 0.1970977 0.9802765 -0.01975139 0.1966414 -0.9874204 0.007295607 0.1579479 -0.9883881 -0.007921417 0.1517444 0.5049123 0.7936144 -0.3394698 -0.05459407 0.934504 -0.3517409 -0.5361887 0.7746885 -0.3352005 -0.9958021 0.07182779 -0.05673542 -0.9997131 0.006156656 -0.02314691 -0.9996983 -0.006186214 -0.02376647 -0.9957173 -0.07225557 -0.05767468 -0.5549263 -0.7648186 -0.3272753 -0.07675427 -0.9345957 -0.3473321 0.504407 -0.7947261 -0.3376151 0.9969486 -0.05939268 -0.05065603 0.9997191 -0.006292006 -0.02284786 0.9997191 0.006351108 -0.0228333 0.9969733 0.0593753 -0.05018861 -0.9928189 0.09672415 0.0703918 -0.9995478 0.01650539 0.02513581 -0.9871534 0.06021916 0.1479937 -0.9981098 0.0157623 0.05940008 0.9903896 0.05286676 0.1278035 -0.998652 -0.01556897 0.04951544 -0.9874817 -0.05564451 0.1475927 0.9902804 -0.05066549 0.1295291 -0.9179701 0.3388693 -0.2061513 -0.96114 0.1606215 -0.2245231 -0.9989141 0.02620712 -0.03852027 -0.9978918 0.01741283 -0.06252152 -0.9988514 -0.02639776 -0.03998721 -0.9977093 -0.01755733 -0.06532902 -0.9185991 -0.3379432 -0.2048662 -0.9605819 -0.1617023 -0.2261299 0.9275091 -0.3182344 -0.1960962 0.9651526 -0.1508814 -0.2138117 0.9278507 0.3179133 -0.1949982 0.9657508 0.1503523 -0.2114697 0.9935924 -0.1121717 0.01383968 -0.9923248 -0.1227283 0.01513205 -0.9998574 -0.01651771 0.003533338 -0.9998562 0.0165346 0.0037683 -0.992213 0.1237791 0.0138651 0.9935153 0.1130083 0.01251799 -0.9828417 0.1459843 -0.1127414 -0.9993669 0.01692957 -0.03129489 -0.9993199 -0.01704038 -0.03270143 -0.9826623 -0.1465661 -0.1135488 0.9849074 -0.1357894 -0.1073242 0.9850757 0.1355017 -0.1061381 -0.9956044 -0.03857575 -0.08534596 -0.9983126 -0.03934054 -0.04271238 -0.9991966 -0.04007412 2.55288e-4 -0.9991993 -0.03955901 0.005986979 -0.9987592 -0.03581076 0.03460691 -0.9962413 -0.02988926 0.08130199 -0.9828196 -0.01374986 0.1840558 -0.981784 0.01387782 0.1894931 -0.9955845 0.0314069 0.08845809 -0.998652 0.03723861 0.03615892 -0.9991884 0.03984879 0.005877527 -0.9991963 0.04008351 2.23046e-4 -0.9983714 0.03908665 -0.04155259 -0.9958236 0.03804411 -0.08299418 0.9979604 -0.0214448 -0.06012744 0.9993203 -0.0213157 -0.03007675 0.999776 -0.02116743 0 0.9997713 -0.02102283 0.003939432 0.9995554 -0.01998366 0.02213045 0.9984846 -0.01809615 0.0519728 0.9907877 -0.008615505 0.1351497 0.9908333 0.008294683 0.1348353 0.9985344 0.01769256 0.05114539 0.9995741 0.01971071 0.02152492 0.9997733 0.02091958 0.003958332 0.9997756 0.02118641 1.63497e-4 0.9993224 0.02139573 -0.0299495 0.9979732 0.02156096 -0.05987332</float_array>
          <technique_common>
            <accessor source="#Lamp_18_LM_LOD0Shape-normals-array" count="210" stride="3">
              <param name="X" type="float"/>
              <param name="Y" type="float"/>
              <param name="Z" type="float"/>
            </accessor>
          </technique_common>
        </source>
        <source id="Lamp_18_LM_LOD0Shape-map1" name="Lamp_18_LM_LOD0Shape-map1">
          <float_array id="Lamp_18_LM_LOD0Shape-map1-array" count="420">0.009625912 0.9932644 0.009624839 0.9933679 0.007597923 0.9849389 0.00759989 0.9848464 0.005744278 0.03000617 0.007597923 0.01506042 0.007599592 0.01515102 0.005746603 0.03008533 0.009625793 0.00673461 0.009624839 0.006631613 0.01384592 0.00136447 0.01384544 0.001489878 0.9990592 0.8293021 0.9990633 0.8293531 8.99851e-4 0.827306 8.96811e-4 0.8273499 0.9967678 0.8491933 0.9933004 0.9054821 0.002826095 0.9159167 0.001771927 0.8794701 0.001774967 0.8794148 0.002829194 0.9158523 0.9941278 0.9699938 0.9941247 0.9699109 9.08494e-4 0.1713543 0.001771927 0.1205301 0.001774669 0.1205795 9.11236e-4 0.1713922 0.002828836 0.08414221 0.002826095 0.08408284 0.004210353 0.05267596 0.004212976 0.0527451 0.9979525 0.1122711 0.9979494 0.1123271 0.001203418 0.8227808 0.002074242 0.8735836 0.003121257 0.9089553 0.004480422 0.9394319 0.005986571 0.961283 0.007780015 0.9753911 0.00973475 0.9830353 0.01382792 0.9870932 0.9938807 0.9613483 0.99762 0.88149 0.00310719 0.09141684 0.004467189 0.0612011 0.002060473 0.1265523 0.001202464 0.1758869 0.01382303 0.01450467 0.009726226 0.01829696 0.005974352 0.03962302 0.007769465 0.02574563 0.997637 0.11869 0.9938807 0.03987122 0.9987111 0.8244741 0.9922326 0.9849389 0.9922307 0.9848497 0.9901594 0.9932687 0.9901603 0.9933679 0.9858452 0.9986355 0.9858458 0.9985178 0.9901594 0.006737947 0.9901603 0.006631613 0.9922326 0.01506042 0.9922305 0.01515532 0.9990612 0.1708968 0.9990649 0.1708548 0.006246924 0.9475815 0.007978797 0.9608133 0.00986141 0.9677689 0.006551862 0.905462 0.008222699 0.9170806 0.01002741 0.9231484 0.01384759 0.9259012 0.0138272 0.9709675 0.00477612 0.9269702 0.003448844 0.8979194 0.001596212 0.816962 0.002433538 0.8649189 0.002238631 0.8077948 0.002884507 0.8387415 0.003819346 0.8632052 0.005115509 0.8882453 0.9920503 0.9755061 0.9900522 0.983146 0.9899211 0.9678481 0.9918458 0.9608939 0.9936142 0.9476283 0.985865 0.9871328 0.9858649 0.9709947 0.9897474 0.9231765 0.9858419 0.925914 0.9915928 0.9171121 0.9983206 0.8187411 0.9976771 0.8096936 0.9972624 0.8727181 0.002245784 0.1922309 0.001598716 0.1822736 0.00343895 0.1039321 0.002423644 0.1362004 0.004766762 0.07560372 0.003815889 0.1396887 0.00511235 0.1156282 0.002880454 0.1632264 0.009855151 0.03628325 0.007971227 0.04295206 0.006238103 0.05572462 0.01382339 0.03332114 0.01002502 0.08257818 0.0138458 0.07997227 0.008219957 0.08834338 0.006549001 0.09939122 0.9933006 0.09944248 0.9915924 0.08838367 0.9897474 0.08260703 0.9899199 0.03638148 0.9918444 0.04309201 0.9936143 0.05589867 0.9858428 0.07997966 0.9858662 0.03335094 0.9900506 0.01843882 0.9858664 0.01454759 0.9920485 0.02594352 0.9972744 0.1285501 0.996773 0.1530194 0.998735 0.1755524 0.9983382 0.1818919 0.9976866 0.1917865 0.02155721 0.9879334 0.02159983 1 0.02159923 0.9998748 0.01384592 0.9986355 0.01384556 0.9985163 0.9858452 0.00136447 0.9858458 0.001490593 0.02159983 0 0.02159923 1.33514e-4 0.02155542 0.01377678 0.02149516 0.926769 0.02149427 0.07913303 0.9858452 0.9986355 0.9855676 0.9895036 0.02159983 1 0.02173704 0.9908855 0.01384592 0.9986355 0.01411748 0.9895036 0.009624839 0.9933684 0.01015252 0.9799378 0.005744278 0.9699938 0.005744278 0.9699938 0.007597923 0.9849408 0.008081198 0.9734294 0.006190658 0.9607713 0.004210353 0.9473236 0.004210472 0.9473236 0.002826154 0.9159167 0.003543139 0.9045255 0.004799068 0.9368269 8.96811e-4 0.8273499 0.001771927 0.8794701 0.002397001 0.8703892 0.001431346 0.8209369 9.08494e-4 0.1713543 0.001443028 0.1777658 0.001771927 0.1205301 0.002397001 0.1296101 0.003543139 0.09547448 0.002826154 0.08408284 0.004210472 0.05267596 0.004799068 0.06317329 0.005744338 0.03000617 0.007597923 0.01506042 0.006190658 0.0392282 0.008081198 0.0265708 0.01015252 0.02006292 0.009624839 0.006632566 0.01384592 0.00136447 0.01411748 0.01049733 0.02159983 0 0.02173704 0.009114742 0.9858452 0.00136447 0.9855676 0.01049566 0.9901603 0.006632566 0.989621 0.02006292 0.9941278 0.03000617 0.9941278 0.03000712 0.9922326 0.01505971 0.9917384 0.0265708 0.9936713 0.0392282 0.9979525 0.1122711 0.9973032 0.121582 0.9990649 0.1708548 0.9985182 0.1772671 0.9990633 0.8293531 0.9985168 0.8229411 0.9979525 0.8877289 0.9979525 0.8877299 0.9973032 0.8784182 0.9941278 0.9699938 0.9936713 0.9607713 0.9922326 0.9849389 0.9917384 0.9734294 0.989621 0.9799364 0.9901603 0.9933684 0.9941247 0.03009105 0.004213214 0.9472501 0.005746901 0.9699099 0.9979488 0.8876665 0.02152288 0.03286529 0.02152443 0.9715025</float_array>
          <technique_common>
            <accessor source="#Lamp_18_LM_LOD0Shape-map1-array" count="210" stride="2">
              <param name="S" type="float"/>
              <param name="T" type="float"/>
            </accessor>
          </technique_common>
        </source>
        <vertices id="Lamp_18_LM_LOD0Shape-vertices" name="Lamp_18_LM_LOD0Shape-vertices">
          <input semantic="POSITION" source="#Lamp_18_LM_LOD0Shape-positions"/>
          <input semantic="NORMAL" source="#Lamp_18_LM_LOD0Shape-normals"/>
        </vertices>
        <triangles material="phong449SG" count="388">
          <input semantic="VERTEX" source="#Lamp_18_LM_LOD0Shape-vertices" offset="0"/>
          <input semantic="TEXCOORD" source="#Lamp_18_LM_LOD0Shape-map1" offset="1" set="0"/>
          <p>118 0 42 1 174 3 174 3 42 1 120 2 20 4 125 5 81 7 81 7 125 5 171 6 47 9 21 10 115 8 115 8 21 10 80 11 26 13 89 12 25 66 25 66 89 12 90 65 202 124 203 16 2 112 2 112 203 16 5 17 44 18 122 19 117 21 117 21 122 19 173 20 88 23 206 207 27 22 27 22 206 207 207 195 124 25 172 26 19 24 19 24 172 26 82 27 46 29 184 30 116 28 116 28 184 30 185 31 82 27 34 47 83 14 83 14 34 47 40 34 40 34 151 35 83 14 83 14 151 35 173 20 101 36 191 37 117 21 117 21 191 37 192 205 118 0 100 40 85 132 85 132 100 40 31 41 84 206 41 38 174 3 174 3 41 38 150 39 27 22 123 55 88 23 88 23 123 55 175 56 45 58 14 59 119 57 119 57 14 59 87 60 18 15 19 24 83 14 83 14 19 24 82 27 114 61 56 62 170 64 170 64 56 62 128 63 99 67 152 68 41 38 41 38 152 68 150 39 100 40 150 39 102 69 102 69 150 39 152 68 6 70 131 71 99 67 99 67 131 71 152 68 102 69 152 68 59 72 59 72 152 68 131 71 59 72 10 73 102 69 102 69 10 73 95 74 100 40 102 69 31 41 31 41 102 69 95 74 103 76 190 75 101 36 101 36 190 75 191 37 98 77 153 78 40 34 40 34 153 78 151 35 101 36 151 35 103 76 103 76 151 35 153 78 7 79 134 80 98 77 98 77 134 80 153 78 103 76 153 78 62 81 62 81 153 78 134 80 62 81 189 82 103 76 103 76 189 82 190 75 127 83 154 86 39 42 39 42 154 86 48 87 154 86 127 83 104 85 104 85 127 83 55 84 55 84 33 88 104 85 104 85 33 88 97 89 97 89 8 91 104 85 104 85 8 91 60 90 154 86 132 92 48 87 48 87 132 92 5 17 104 85 60 90 154 86 154 86 60 90 132 92 37 125 38 54 54 126 54 126 38 54 49 93 39 42 48 87 205 43 205 43 48 87 204 95 48 87 5 17 204 95 204 95 5 17 203 16 98 77 40 34 50 97 50 97 40 34 34 47 126 46 155 99 34 47 34 47 155 99 50 97 155 99 126 46 105 98 105 98 126 46 51 44 105 98 51 44 187 100 187 100 51 44 186 45 63 101 105 98 188 102 188 102 105 98 187 100 155 99 135 103 50 97 50 97 135 103 1 96 135 103 155 99 63 101 63 101 155 99 105 98 52 106 35 50 156 105 156 105 35 50 121 51 156 105 121 51 106 104 106 104 121 51 43 49 43 49 30 48 106 104 106 104 30 48 94 107 94 107 13 109 106 104 106 104 13 109 58 108 0 111 52 106 130 110 130 110 52 106 156 105 106 104 58 108 156 105 156 105 58 108 130 110 2 112 133 113 53 117 53 117 133 113 157 116 107 115 157 116 61 114 61 114 157 116 133 113 61 114 11 118 107 115 107 115 11 118 92 119 92 119 28 121 107 115 107 115 28 121 57 120 53 117 157 116 36 53 36 53 157 116 129 122 57 120 129 122 107 115 107 115 129 122 157 116 36 53 200 52 53 117 53 117 200 52 201 123 53 117 201 123 2 112 2 112 201 123 202 124 4 94 3 127 49 93 49 93 3 127 54 126 86 130 87 60 15 129 15 129 87 60 14 59 86 130 32 128 87 60 87 60 32 128 33 88 85 132 31 41 86 130 86 130 31 41 32 128 86 130 15 129 85 132 85 132 15 129 16 131 129 122 170 64 36 53 36 53 170 64 91 204 22 135 23 133 79 136 79 136 23 133 78 134 78 134 28 121 79 136 79 136 28 121 29 137 21 10 22 135 80 11 80 11 22 135 79 136 29 137 30 48 79 136 79 136 30 48 80 11 9 138 12 139 8 91 8 91 12 139 11 118 0 111 130 110 6 70 6 70 130 110 131 71 130 110 58 108 131 71 131 71 58 108 59 72 9 138 10 73 12 139 12 139 10 73 13 109 10 73 59 72 13 109 13 109 59 72 58 108 2 112 5 17 133 113 133 113 5 17 132 92 132 92 60 90 133 113 133 113 60 90 61 114 8 91 11 118 60 90 60 90 11 118 61 114 189 82 62 81 188 102 188 102 62 81 63 101 1 96 135 103 7 79 7 79 135 103 134 80 135 103 63 101 134 80 134 80 63 101 62 81 15 129 14 59 137 142 137 142 14 59 136 140 136 140 64 141 137 142 137 142 64 141 65 143 15 129 137 142 16 131 16 131 137 142 138 144 137 142 65 143 138 144 138 144 65 143 66 145 16 131 138 144 42 1 42 1 138 144 158 146 108 147 158 146 66 145 66 145 158 146 138 144 139 148 17 149 176 150 176 150 17 149 120 2 42 1 158 146 120 2 120 2 158 146 176 150 158 146 108 147 176 150 176 150 108 147 159 151 67 152 139 148 159 151 159 151 139 148 176 150 193 153 194 154 44 18 44 18 194 154 160 155 109 156 160 155 195 157 195 157 160 155 194 154 18 15 122 19 140 158 140 158 122 19 177 159 122 19 44 18 177 159 177 159 44 18 160 155 160 155 109 156 177 159 177 159 109 156 161 160 68 161 140 158 161 160 161 160 140 158 177 159 18 15 140 158 19 24 19 24 140 158 141 162 140 158 68 161 141 162 141 162 68 161 69 163 19 24 141 162 124 25 124 25 141 162 178 164 69 163 163 165 141 162 141 162 163 165 178 164 163 165 110 166 178 164 178 164 110 166 162 167 46 29 124 25 162 167 162 167 124 25 178 164 184 30 46 29 183 168 183 168 46 29 162 167 110 166 182 169 162 167 162 167 182 169 183 168 125 5 20 4 179 171 179 171 20 4 142 170 70 172 165 173 142 170 142 170 165 173 179 171 165 173 111 174 179 171 179 171 111 174 164 175 47 9 125 5 164 175 164 175 125 5 179 171 21 10 47 9 143 176 143 176 47 9 164 175 111 174 71 177 164 175 164 175 71 177 143 176 22 135 21 10 144 178 144 178 21 10 143 176 71 177 72 179 143 176 143 176 72 179 144 178 22 135 144 178 23 133 23 133 144 178 145 180 144 178 72 179 145 180 145 180 72 179 73 181 23 133 145 180 56 62 56 62 145 180 166 182 112 183 166 182 73 181 73 181 166 182 145 180 146 184 24 185 180 186 180 186 24 185 128 63 56 62 166 182 128 63 128 63 166 182 180 186 166 182 112 183 180 186 180 186 112 183 167 187 74 188 146 184 167 187 167 187 146 184 180 186 24 185 146 184 198 32 198 32 146 184 197 189 146 184 74 188 197 189 197 189 74 188 196 190 26 13 25 66 148 193 148 193 25 66 147 191 147 191 75 192 148 193 148 193 75 192 76 194 27 22 207 195 149 198 149 198 207 195 208 196 209 197 77 199 208 196 208 196 77 199 149 198 123 55 27 22 181 200 181 200 27 22 149 198 77 199 169 201 149 198 149 198 169 201 181 200 169 201 113 202 181 200 181 200 113 202 168 203 45 58 123 55 168 203 168 203 123 55 181 200 14 59 45 58 136 140 136 140 45 58 168 203 113 202 64 141 168 203 168 203 64 141 136 140 78 134 23 133 114 61 114 61 23 133 56 62 24 185 91 204 128 63 128 63 91 204 170 64 170 64 129 122 114 61 114 61 129 122 57 120 114 61 57 120 78 134 78 134 57 120 28 121 115 8 80 11 43 49 43 49 80 11 30 48 81 7 171 6 35 50 35 50 171 6 121 51 43 49 121 51 115 8 115 8 121 51 171 6 115 8 171 6 47 9 47 9 171 6 125 5 51 44 116 28 186 45 186 45 116 28 185 31 172 26 126 46 82 27 82 27 126 46 34 47 126 46 172 26 51 44 51 44 172 26 116 28 116 28 172 26 46 29 46 29 172 26 124 25 83 14 173 20 18 15 18 15 173 20 122 19 117 21 173 20 101 36 101 36 173 20 151 35 44 18 117 21 193 153 193 153 117 21 192 205 174 3 120 2 84 206 84 206 120 2 17 149 174 3 150 39 118 0 118 0 150 39 100 40 85 132 16 131 118 0 118 0 16 131 42 1 119 57 87 60 55 84 55 84 87 60 33 88 88 23 175 56 39 42 39 42 175 56 127 83 55 84 127 83 119 57 119 57 127 83 175 56 119 57 175 56 45 58 45 58 175 56 123 55 88 23 39 42 206 207 206 207 39 42 205 43 89 12 38 54 90 65 90 65 38 54 37 125 91 204 199 33 36 53 36 53 199 33 200 52 91 204 24 185 199 33 199 33 24 185 198 32 29 137 28 121 93 208 93 208 28 121 92 119 92 119 11 118 93 208 93 208 11 118 12 139 30 48 29 137 94 107 94 107 29 137 93 208 12 139 13 109 93 208 93 208 13 109 94 107 31 41 95 74 32 128 32 128 95 74 96 209 95 74 10 73 96 209 96 209 10 73 9 138 97 89 33 88 96 209 96 209 33 88 32 128 96 209 9 138 97 89 97 89 9 138 8 91 50 97 1 96 98 77 98 77 1 96 7 79 182 169 70 172 183 168 183 168 70 172 142 170 20 4 184 30 142 170 142 170 184 30 183 168 184 30 20 4 185 31 185 31 20 4 81 7 81 7 35 50 185 31 185 31 35 50 186 45 35 50 52 106 186 45 186 45 52 106 187 100 52 106 0 111 187 100 187 100 0 111 188 102 6 70 189 82 0 111 0 111 189 82 188 102 189 82 6 70 190 75 190 75 6 70 99 67 190 75 99 67 191 37 191 37 99 67 41 38 191 37 41 38 192 205 192 205 41 38 84 206 84 206 17 149 192 205 192 205 17 149 193 153 194 154 193 153 139 148 139 148 193 153 17 149 195 157 194 154 67 152 67 152 194 154 139 148 75 192 147 191 196 190 196 190 147 191 197 189 25 66 198 32 147 191 147 191 198 32 197 189 198 32 25 66 199 33 199 33 25 66 90 65 199 33 90 65 200 52 200 52 90 65 37 125 200 52 37 125 201 123 201 123 37 125 54 126 201 123 54 126 202 124 202 124 54 126 3 127 3 127 4 94 202 124 202 124 4 94 203 16 4 94 49 93 203 16 203 16 49 93 204 95 49 93 38 54 204 95 204 95 38 54 205 43 38 54 89 12 205 43 205 43 89 12 206 207 206 207 89 12 207 195 207 195 89 12 26 13 208 196 207 195 148 193 148 193 207 195 26 13 208 196 148 193 209 197 209 197 148 193 76 194</p>
        </triangles>
      </mesh>
      <extra>
        <technique profile="OpenCOLLADAMaya">
          <originalMayaNodeId>Lamp_18_LM_LOD0Shape</originalMayaNodeId>
          <double_sided>1</double_sided>
        </technique>
      </extra>
    </geometry>
  </library_geometries>
  <library_visual_scenes>
    <visual_scene id="VisualSceneNode" name="All_Art_344">
      <node id="Lamp_18_LM_LOD0" name="Lamp_18_LM_LOD0" type="NODE">
        <translate sid="translate">0 0 0</translate>
        <rotate sid="rotateZ">0 0 1 0</rotate>
        <rotate sid="rotateY">0 1 0 0</rotate>
        <rotate sid="rotateX">1 0 0 0</rotate>
        <scale sid="scale">1 1 1</scale>
        <instance_geometry url="#Lamp_18_LM_LOD0Shape">
          <bind_material>
            <technique_common>
              <instance_material symbol="phong449SG" target="#phong449"/>
            </technique_common>
          </bind_material>
        </instance_geometry>
        <extra>
          <technique profile="OpenCOLLADAMaya">
            <originalMayaNodeId>Lamp_18_LM_LOD0</originalMayaNodeId>
          </technique>
        </extra>
      </node>
    </visual_scene>
  </library_visual_scenes>
  <scene>
    <instance_visual_scene url="#VisualSceneNode"/>
  </scene>
</COLLADA>