<?xml version="1.0" encoding="utf-8"?>
<COLLADA xmlns="http://www.collada.org/2005/11/COLLADASchema" version="1.4.1">
  <asset>
    <contributor>
      <author>magnus.ihrefors</author>
      <authoring_tool>OpenCOLLADA2011 x64</authoring_tool>
      <comments>
			ColladaMaya export options: 
			bakeTransforms=0;relativePaths=0;copyTextures=0;exportTriangles=1;exportCgfxFileReferences=1;
			isSampling=0;curveConstrainSampling=0;removeStaticCurves=1;exportPolygonMeshes=1;exportLights=1;
			exportCameras=1;exportJointsAndSkin=1;exportAnimations=1;exportInvisibleNodes=0;exportDefaultCameras=0;
			exportTexCoords=1;exportNormals=1;exportNormalsPerVertex=1;exportVertexColors=1;exportVertexColorsPerVertex=1;
			exportTexTangents=1;exportTangents=0;exportReferencedMaterials=0;exportMaterialsOnly=0;
			exportXRefs=1;dereferenceXRefs=1;exportCameraAsLookat=0;cameraXFov=0;cameraYFov=1;doublePrecision=0
		</comments>
      <source_data>file:///C:/Maya_2011_Projects/3dAssets/scenes/All_Art_256.mb</source_data>
    </contributor>
    <created>2013-04-10T14:06:53</created>
    <modified>2013-04-10T14:06:53</modified>
    <unit name="millimeter" meter="0.001"/>
    <up_axis>Y_UP</up_axis>
  </asset>
  <library_materials>
    <material id="phong158" name="phong158">
      <instance_effect url="#phong158-fx"/>
    </material>
  </library_materials>
  <library_effects>
    <effect id="phong158-fx">
      <profile_COMMON>
        <newparam sid="file214-surface">
          <surface type="2D">
            <init_from>file214</init_from>
          </surface>
        </newparam>
        <newparam sid="file214-sampler">
          <sampler2D>
            <source>file214-surface</source>
          </sampler2D>
        </newparam>
        <technique sid="common">
          <phong>
            <emission>
              <color>0 0 0 1</color>
            </emission>
            <ambient>
              <color>0 0 0 1</color>
            </ambient>
            <diffuse>
              <texture texture="file214-sampler" texcoord="TEX0">
                <extra>
                  <technique profile="OpenCOLLADAMaya">
                    <blend_mode>NONE</blend_mode>
                    <coverageU>1</coverageU>
                    <coverageV>1</coverageV>
                    <fast>0</fast>
                    <mirrorU>0</mirrorU>
                    <mirrorV>0</mirrorV>
                    <noiseU>0</noiseU>
                    <noiseV>0</noiseV>
                    <offsetU>0</offsetU>
                    <offsetV>0</offsetV>
                    <repeatU>1</repeatU>
                    <repeatV>1</repeatV>
                    <rotateFrame>0</rotateFrame>
                    <rotateUV>0</rotateUV>
                    <stagger>0</stagger>
                    <translateFrameU>0</translateFrameU>
                    <translateFrameV>0</translateFrameV>
                    <wrapU>1</wrapU>
                    <wrapV>1</wrapV>
                  </technique>
                </extra>
              </texture>
            </diffuse>
            <specular>
              <color>0.5 0.5 0.5 1</color>
            </specular>
            <shininess>
              <float>20</float>
            </shininess>
            <reflective>
              <color>0 0 0 1</color>
            </reflective>
            <reflectivity>
              <float>0.5</float>
            </reflectivity>
            <transparent opaque="RGB_ZERO">
              <color>0 0 0 1</color>
            </transparent>
            <transparency>
              <float>1</float>
            </transparency>
          </phong>
        </technique>
      </profile_COMMON>
    </effect>
  </library_effects>
  <library_images>
    <image id="file214" name="file214">
      <init_from>file:///C:/Users/magnus.ihrefors/Desktop/Button_Ref/Assets/Decorations/Routing_Icon/Routing_Icon_02_df.psd</init_from>
      <extra>
        <technique profile="OpenCOLLADAMaya">
          <dgnode_type>kFile</dgnode_type>
          <image_sequence>0</image_sequence>
          <originalMayaNodeId>file214</originalMayaNodeId>
        </technique>
      </extra>
    </image>
  </library_images>
  <library_geometries>
    <geometry id="Routing_Icon_White_02_LODShape0" name="Routing_Icon_White_02_LODShape0">
      <mesh>
        <source id="Routing_Icon_White_02_LODShape0-positions" name="Routing_Icon_White_02_LODShape0-positions">
          <float_array id="Routing_Icon_White_02_LODShape0-positions-array" count="12">-4.15 0 5.5 4.15 0 5.5 -4.15 0 -5.5 4.15 0 -5.5</float_array>
          <technique_common>
            <accessor source="#Routing_Icon_White_02_LODShape0-positions-array" count="4" stride="3">
              <param name="X" type="float"/>
              <param name="Y" type="float"/>
              <param name="Z" type="float"/>
            </accessor>
          </technique_common>
        </source>
        <source id="Routing_Icon_White_02_LODShape0-normals" name="Routing_Icon_White_02_LODShape0-normals">
          <float_array id="Routing_Icon_White_02_LODShape0-normals-array" count="12">0 1 0 0 1 0 0 1 0 0 1 0</float_array>
          <technique_common>
            <accessor source="#Routing_Icon_White_02_LODShape0-normals-array" count="4" stride="3">
              <param name="X" type="float"/>
              <param name="Y" type="float"/>
              <param name="Z" type="float"/>
            </accessor>
          </technique_common>
        </source>
        <source id="Routing_Icon_White_02_LODShape0-map1" name="Routing_Icon_White_02_LODShape0-map1">
          <float_array id="Routing_Icon_White_02_LODShape0-map1-array" count="8">0 0 0.9999999 0 0.9999999 1 0 1</float_array>
          <technique_common>
            <accessor source="#Routing_Icon_White_02_LODShape0-map1-array" count="4" stride="2">
              <param name="S" type="float"/>
              <param name="T" type="float"/>
            </accessor>
          </technique_common>
        </source>
        <source id="Routing_Icon_White_02_LODShape0-textangents">
          <float_array id="Routing_Icon_White_02_LODShape0-textangents-array" count="12">1 0 0 1 0 0 1 0 0 1 0 0</float_array>
          <technique_common>
            <accessor source="#Routing_Icon_White_02_LODShape0-textangents-array" count="4" stride="3">
              <param name="X" type="float"/>
              <param name="Y" type="float"/>
              <param name="Z" type="float"/>
            </accessor>
          </technique_common>
        </source>
        <source id="Routing_Icon_White_02_LODShape0-texbinormals">
          <float_array id="Routing_Icon_White_02_LODShape0-texbinormals-array" count="12">0 0 -1 0 0 -1 0 0 -1 0 0 -1</float_array>
          <technique_common>
            <accessor source="#Routing_Icon_White_02_LODShape0-texbinormals-array" count="4" stride="3">
              <param name="X" type="float"/>
              <param name="Y" type="float"/>
              <param name="Z" type="float"/>
            </accessor>
          </technique_common>
        </source>
        <vertices id="Routing_Icon_White_02_LODShape0-vertices" name="Routing_Icon_White_02_LODShape0-vertices">
          <input semantic="POSITION" source="#Routing_Icon_White_02_LODShape0-positions"/>
          <input semantic="NORMAL" source="#Routing_Icon_White_02_LODShape0-normals"/>
        </vertices>
        <triangles material="phong158SG" count="2">
          <input semantic="VERTEX" source="#Routing_Icon_White_02_LODShape0-vertices" offset="0"/>
          <input semantic="TEXCOORD" source="#Routing_Icon_White_02_LODShape0-map1" offset="1" set="0"/>
          <input semantic="TEXTANGENT" source="#Routing_Icon_White_02_LODShape0-textangents" offset="2" set="0"/>
          <input semantic="TEXBINORMAL" source="#Routing_Icon_White_02_LODShape0-texbinormals" offset="2" set="0"/>
          <p>0 0 0 1 1 1 2 3 3 2 3 3 1 1 1 3 2 2</p>
        </triangles>
      </mesh>
      <extra>
        <technique profile="OpenCOLLADAMaya">
          <originalMayaNodeId>Routing_Icon_White_02_LODShape0</originalMayaNodeId>
          <double_sided>1</double_sided>
        </technique>
      </extra>
    </geometry>
  </library_geometries>
  <library_visual_scenes>
    <visual_scene id="VisualSceneNode" name="All_Art_256">
      <node id="Routing_Icon_White_02_LOD0" name="Routing_Icon_White_02_LOD0" type="NODE">
        <translate sid="translate">0 0 0</translate>
        <rotate sid="rotateZ">0 0 1 0</rotate>
        <rotate sid="rotateY">0 1 0 0</rotate>
        <rotate sid="rotateX">1 0 0 90</rotate>
        <scale sid="scale">1 1 1</scale>
        <instance_geometry url="#Routing_Icon_White_02_LODShape0">
          <bind_material>
            <technique_common>
              <instance_material symbol="phong158SG" target="#phong158">
                <bind_vertex_input semantic="TEX0" input_semantic="TEXCOORD" input_set="0"/>
              </instance_material>
            </technique_common>
          </bind_material>
        </instance_geometry>
        <extra>
          <technique profile="OpenCOLLADAMaya">
            <originalMayaNodeId>Routing_Icon_White_02_LOD0</originalMayaNodeId>
          </technique>
        </extra>
      </node>
    </visual_scene>
  </library_visual_scenes>
  <scene>
    <instance_visual_scene url="#VisualSceneNode"/>
  </scene>
</COLLADA>